<svg width="22" height="22" viewBox="0 0 22 22" fill="none" xmlns="http://www.w3.org/2000/svg">
<circle cx="11" cy="11" r="11" fill="#009CDC"/>
<path d="M17.0002 11.501L10.3155 11.6211L10.3021 3.0001" stroke="white" stroke-width="2"/>
</svg>
