<svg width="71" height="16" viewBox="0 0 71 16" fill="none" xmlns="http://www.w3.org/2000/svg">
<path d="M0.292892 7.2929C-0.0976334 7.68342 -0.0976333 8.31659 0.292893 8.70711L6.65685 15.0711C7.04738 15.4616 7.68054 15.4616 8.07107 15.0711C8.46159 14.6805 8.46159 14.0474 8.07107 13.6569L2.41422 8.00001L8.07107 2.34315C8.46159 1.95263 8.46159 1.31946 8.07107 0.928938C7.68054 0.538413 7.04738 0.538413 6.65685 0.928938L0.292892 7.2929ZM71 7L1 7.00001L1 9.00001L71 9L71 7Z" fill="white"/>
</svg>
