[
  {
    "title": "Календарь",
    "href": "#",
    "number": "1",
    "path": "calendar.html",
    "subitems": false
  },
  {
    "title": "Сертификаты",
    "href": "#",
    "number": "1",
    "path": "certificates.html",
    "subitems": false
  },
  {
    "title": "Завершенные",
    "href": "#",
    "number": "",
    "path": "finished.html",
    "subitems": false
  },
  {
    "title": "Профиль",
    "href": "#",
    "number": "",
    "path": "profile.html",
    "subitems": false
  },
  {
    "title": "Анкетирование",
    "href": "#",
    "number": "",
    "path": "questionnaire.html",
    "subitems": false
  },
  {
    "title": "Поддержка",
    "href": "#",
    "number": "",
    "path": "support.html",
    "subitems": false
  },
  {
    "title": "Помощь",
    "href": "#",
    "number": "",
    "path": "faq.html",
    "subitems": false
  }
]
