<svg width="22" height="22" viewBox="0 0 22 22" fill="none" xmlns="http://www.w3.org/2000/svg">
<path d="M0 22.0008V0H22V17.8006H5.5L0 22.0008Z" fill="#009CDC"/>
<path d="M4 5H18" stroke="white" stroke-width="2"/>
<path d="M4 9H18" stroke="white" stroke-width="2"/>
<path d="M4 13H18" stroke="white" stroke-width="2"/>
</svg>
